<svg width="188" height="135" viewBox="0 0 188 135" fill="none" xmlns="http://www.w3.org/2000/svg">
<path d="M3.472 130.14C2.90267 130.14 2.34733 130.047 1.806 129.86C1.26467 129.673 0.798 129.403 0.406 129.048L0.84 128.404C1.25067 128.74 1.666 128.992 2.086 129.16C2.51533 129.328 2.97267 129.412 3.458 129.412C4.046 129.412 4.51267 129.295 4.858 129.062C5.21267 128.819 5.39 128.479 5.39 128.04C5.39 127.835 5.34333 127.667 5.25 127.536C5.15667 127.396 5.01667 127.275 4.83 127.172C4.65267 127.069 4.424 126.981 4.144 126.906C3.87333 126.822 3.556 126.738 3.192 126.654C2.772 126.551 2.408 126.449 2.1 126.346C1.792 126.243 1.53533 126.127 1.33 125.996C1.134 125.865 0.984667 125.707 0.882 125.52C0.788667 125.324 0.742 125.081 0.742 124.792C0.742 124.428 0.812 124.106 0.952 123.826C1.10133 123.546 1.29733 123.317 1.54 123.14C1.792 122.953 2.08133 122.813 2.408 122.72C2.744 122.627 3.09867 122.58 3.472 122.58C4.032 122.58 4.54067 122.673 4.998 122.86C5.45533 123.037 5.824 123.275 6.104 123.574L5.642 124.134C5.37133 123.854 5.04 123.644 4.648 123.504C4.26533 123.364 3.864 123.294 3.444 123.294C3.192 123.294 2.95867 123.322 2.744 123.378C2.52933 123.425 2.338 123.504 2.17 123.616C2.01133 123.728 1.88533 123.873 1.792 124.05C1.69867 124.218 1.652 124.419 1.652 124.652C1.652 124.848 1.68467 125.007 1.75 125.128C1.81533 125.249 1.92267 125.357 2.072 125.45C2.22133 125.534 2.408 125.613 2.632 125.688C2.86533 125.753 3.14533 125.823 3.472 125.898C3.93867 126.01 4.34933 126.122 4.704 126.234C5.05867 126.346 5.35267 126.477 5.586 126.626C5.82867 126.775 6.01067 126.957 6.132 127.172C6.25333 127.387 6.314 127.648 6.314 127.956C6.314 128.628 6.05733 129.16 5.544 129.552C5.03067 129.944 4.34 130.14 3.472 130.14ZM11.0223 130.14C10.4903 130.14 10.0003 130.042 9.55227 129.846C9.1136 129.641 8.73093 129.365 8.40427 129.02C8.0776 128.665 7.82093 128.259 7.63427 127.802C7.45693 127.345 7.36827 126.855 7.36827 126.332C7.36827 125.819 7.45693 125.338 7.63427 124.89C7.82093 124.433 8.07293 124.036 8.39027 123.7C8.71693 123.355 9.10427 123.084 9.55227 122.888C10.0003 122.683 10.4856 122.58 11.0083 122.58C11.5403 122.58 12.0256 122.683 12.4643 122.888C12.9123 123.084 13.2949 123.355 13.6123 123.7C13.9296 124.045 14.1769 124.442 14.3543 124.89C14.5316 125.338 14.6203 125.814 14.6203 126.318C14.6203 126.393 14.6203 126.467 14.6203 126.542C14.6203 126.617 14.6156 126.668 14.6063 126.696H8.36227C8.39027 127.088 8.47893 127.452 8.62827 127.788C8.78693 128.115 8.9876 128.399 9.23027 128.642C9.47293 128.885 9.74827 129.076 10.0563 129.216C10.3736 129.347 10.7096 129.412 11.0643 129.412C11.2976 129.412 11.5309 129.379 11.7643 129.314C11.9976 129.249 12.2123 129.16 12.4083 129.048C12.6043 128.936 12.7816 128.801 12.9403 128.642C13.0989 128.474 13.2203 128.292 13.3043 128.096L14.1303 128.32C14.0183 128.591 13.8596 128.838 13.6543 129.062C13.4489 129.277 13.2109 129.468 12.9403 129.636C12.6696 129.795 12.3709 129.916 12.0443 130C11.7176 130.093 11.3769 130.14 11.0223 130.14ZM13.7103 125.968C13.6823 125.576 13.5889 125.221 13.4303 124.904C13.2809 124.577 13.0849 124.297 12.8423 124.064C12.6089 123.831 12.3336 123.649 12.0163 123.518C11.7083 123.387 11.3769 123.322 11.0223 123.322C10.6676 123.322 10.3316 123.387 10.0143 123.518C9.69693 123.649 9.41693 123.831 9.17427 124.064C8.94093 124.297 8.7496 124.577 8.60027 124.904C8.46027 125.231 8.37627 125.585 8.34827 125.968H13.7103ZM26.9391 130H25.9871V125.926C25.9871 125.077 25.8517 124.451 25.5811 124.05C25.3104 123.649 24.9091 123.448 24.3771 123.448C24.0971 123.448 23.8311 123.499 23.5791 123.602C23.3364 123.705 23.1077 123.849 22.8931 124.036C22.6877 124.223 22.5057 124.447 22.3471 124.708C22.1884 124.96 22.0671 125.24 21.9831 125.548V130H21.0311V125.926C21.0311 125.058 20.9004 124.428 20.6391 124.036C20.3777 123.644 19.9764 123.448 19.4351 123.448C18.8844 123.448 18.3944 123.639 17.9651 124.022C17.5357 124.405 17.2277 124.909 17.0411 125.534V130H16.0891V122.706H16.9571V124.358C17.2557 123.798 17.6477 123.364 18.1331 123.056C18.6184 122.739 19.1551 122.58 19.7431 122.58C20.3591 122.58 20.8491 122.753 21.2131 123.098C21.5864 123.443 21.8151 123.896 21.8991 124.456C22.5804 123.205 23.5184 122.58 24.7131 122.58C25.1237 122.58 25.4691 122.655 25.7491 122.804C26.0384 122.953 26.2671 123.168 26.4351 123.448C26.6124 123.719 26.7384 124.05 26.8131 124.442C26.8971 124.825 26.9391 125.254 26.9391 125.73V130ZM32.0187 126.332C32.0187 125.819 32.1073 125.333 32.2847 124.876C32.462 124.419 32.7093 124.022 33.0267 123.686C33.3533 123.341 33.7407 123.07 34.1887 122.874C34.6367 122.678 35.1313 122.58 35.6727 122.58C36.3633 122.58 36.9653 122.739 37.4787 123.056C37.992 123.364 38.3793 123.784 38.6407 124.316L37.7167 124.61C37.5113 124.237 37.222 123.947 36.8487 123.742C36.4847 123.527 36.0787 123.42 35.6307 123.42C35.2573 123.42 34.9073 123.495 34.5807 123.644C34.2633 123.793 33.9833 123.999 33.7407 124.26C33.5073 124.512 33.3207 124.815 33.1807 125.17C33.05 125.525 32.9847 125.912 32.9847 126.332C32.9847 126.743 33.0547 127.13 33.1947 127.494C33.3347 127.858 33.526 128.175 33.7687 128.446C34.0113 128.707 34.2913 128.917 34.6087 129.076C34.9353 129.225 35.2807 129.3 35.6447 129.3C35.878 129.3 36.1067 129.267 36.3307 129.202C36.564 129.137 36.7787 129.048 36.9747 128.936C37.1707 128.815 37.3387 128.679 37.4787 128.53C37.6187 128.381 37.7167 128.222 37.7727 128.054L38.7107 128.334C38.608 128.595 38.4587 128.838 38.2627 129.062C38.0667 129.277 37.8333 129.468 37.5627 129.636C37.3013 129.795 37.0073 129.916 36.6807 130C36.3633 130.093 36.032 130.14 35.6867 130.14C35.1547 130.14 34.6647 130.042 34.2167 129.846C33.7687 129.641 33.3813 129.365 33.0547 129.02C32.728 128.665 32.4713 128.259 32.2847 127.802C32.1073 127.345 32.0187 126.855 32.0187 126.332ZM43.2459 130.14C42.7139 130.14 42.2286 130.042 41.7899 129.846C41.3512 129.641 40.9686 129.365 40.6419 129.02C40.3246 128.675 40.0772 128.273 39.8999 127.816C39.7226 127.359 39.6339 126.878 39.6339 126.374C39.6339 125.861 39.7226 125.375 39.8999 124.918C40.0866 124.461 40.3386 124.059 40.6559 123.714C40.9826 123.369 41.3652 123.093 41.8039 122.888C42.2426 122.683 42.7232 122.58 43.2459 122.58C43.7686 122.58 44.2492 122.683 44.6879 122.888C45.1359 123.093 45.5186 123.369 45.8359 123.714C46.1626 124.059 46.4146 124.461 46.5919 124.918C46.7786 125.375 46.8719 125.861 46.8719 126.374C46.8719 126.878 46.7832 127.359 46.6059 127.816C46.4286 128.273 46.1766 128.675 45.8499 129.02C45.5326 129.365 45.1499 129.641 44.7019 129.846C44.2632 130.042 43.7779 130.14 43.2459 130.14ZM40.5999 126.388C40.5999 126.799 40.6699 127.181 40.8099 127.536C40.9499 127.881 41.1366 128.189 41.3699 128.46C41.6126 128.721 41.8926 128.927 42.2099 129.076C42.5366 129.225 42.8819 129.3 43.2459 129.3C43.6099 129.3 43.9506 129.225 44.2679 129.076C44.5946 128.917 44.8792 128.707 45.1219 128.446C45.3646 128.175 45.5559 127.863 45.6959 127.508C45.8359 127.153 45.9059 126.771 45.9059 126.36C45.9059 125.959 45.8359 125.581 45.6959 125.226C45.5559 124.862 45.3646 124.549 45.1219 124.288C44.8792 124.017 44.5946 123.807 44.2679 123.658C43.9506 123.499 43.6099 123.42 43.2459 123.42C42.8819 123.42 42.5412 123.499 42.2239 123.658C41.9066 123.807 41.6266 124.017 41.3839 124.288C41.1412 124.559 40.9499 124.876 40.8099 125.24C40.6699 125.595 40.5999 125.977 40.5999 126.388ZM54.5961 130H53.6441V125.926C53.6441 125.058 53.5134 124.428 53.2521 124.036C53.0001 123.644 52.6081 123.448 52.0761 123.448C51.7961 123.448 51.5161 123.499 51.2361 123.602C50.9561 123.705 50.6947 123.849 50.4521 124.036C50.2187 124.223 50.0087 124.447 49.8221 124.708C49.6354 124.96 49.5001 125.235 49.4161 125.534V130H48.4641V122.706H49.3321V124.358C49.6307 123.826 50.0554 123.397 50.6061 123.07C51.1661 122.743 51.7727 122.58 52.4261 122.58C52.8274 122.58 53.1681 122.655 53.4481 122.804C53.7281 122.953 53.9521 123.163 54.1201 123.434C54.2881 123.705 54.4094 124.036 54.4841 124.428C54.5587 124.82 54.5961 125.254 54.5961 125.73V130ZM60.0578 129.65C60.0018 129.678 59.9178 129.715 59.8058 129.762C59.7031 129.809 59.5818 129.855 59.4418 129.902C59.3018 129.949 59.1431 129.991 58.9658 130.028C58.7885 130.065 58.6018 130.084 58.4058 130.084C58.2005 130.084 58.0045 130.056 57.8178 130C57.6311 129.944 57.4678 129.86 57.3278 129.748C57.1878 129.627 57.0758 129.477 56.9918 129.3C56.9078 129.123 56.8658 128.917 56.8658 128.684V123.462H55.8578V122.706H56.8658V120.242H57.8178V122.706H59.4978V123.462H57.8178V128.418C57.8365 128.689 57.9298 128.889 58.0978 129.02C58.2751 129.141 58.4758 129.202 58.6998 129.202C58.9705 129.202 59.2085 129.16 59.4138 129.076C59.6191 128.983 59.7498 128.917 59.8058 128.88L60.0578 129.65ZM64.2195 130.14C63.6875 130.14 63.1975 130.042 62.7495 129.846C62.3109 129.641 61.9282 129.365 61.6015 129.02C61.2749 128.665 61.0182 128.259 60.8315 127.802C60.6542 127.345 60.5655 126.855 60.5655 126.332C60.5655 125.819 60.6542 125.338 60.8315 124.89C61.0182 124.433 61.2702 124.036 61.5875 123.7C61.9142 123.355 62.3015 123.084 62.7495 122.888C63.1975 122.683 63.6829 122.58 64.2055 122.58C64.7375 122.58 65.2229 122.683 65.6615 122.888C66.1095 123.084 66.4922 123.355 66.8095 123.7C67.1269 124.045 67.3742 124.442 67.5515 124.89C67.7289 125.338 67.8175 125.814 67.8175 126.318C67.8175 126.393 67.8175 126.467 67.8175 126.542C67.8175 126.617 67.8129 126.668 67.8035 126.696H61.5595C61.5875 127.088 61.6762 127.452 61.8255 127.788C61.9842 128.115 62.1849 128.399 62.4275 128.642C62.6702 128.885 62.9455 129.076 63.2535 129.216C63.5709 129.347 63.9069 129.412 64.2615 129.412C64.4949 129.412 64.7282 129.379 64.9615 129.314C65.1949 129.249 65.4095 129.16 65.6055 129.048C65.8015 128.936 65.9789 128.801 66.1375 128.642C66.2962 128.474 66.4175 128.292 66.5015 128.096L67.3275 128.32C67.2155 128.591 67.0569 128.838 66.8515 129.062C66.6462 129.277 66.4082 129.468 66.1375 129.636C65.8669 129.795 65.5682 129.916 65.2415 130C64.9149 130.093 64.5742 130.14 64.2195 130.14ZM66.9075 125.968C66.8795 125.576 66.7862 125.221 66.6275 124.904C66.4782 124.577 66.2822 124.297 66.0395 124.064C65.8062 123.831 65.5309 123.649 65.2135 123.518C64.9055 123.387 64.5742 123.322 64.2195 123.322C63.8649 123.322 63.5289 123.387 63.2115 123.518C62.8942 123.649 62.6142 123.831 62.3715 124.064C62.1382 124.297 61.9469 124.577 61.7975 124.904C61.6575 125.231 61.5735 125.585 61.5455 125.968H66.9075ZM72.3943 121.32L71.7643 121.082L72.5903 119.78H73.5983L72.3943 121.32ZM71.5683 130.14C70.775 130.14 70.1823 129.879 69.7903 129.356C69.4077 128.824 69.2163 128.035 69.2163 126.99V122.706H70.1683V126.822C70.1683 128.474 70.733 129.3 71.8623 129.3C72.1423 129.3 72.4177 129.253 72.6883 129.16C72.959 129.067 73.2063 128.931 73.4303 128.754C73.6637 128.577 73.869 128.367 74.0463 128.124C74.233 127.881 74.3823 127.606 74.4943 127.298V122.706H75.4463V128.768C75.4463 129.029 75.5583 129.16 75.7823 129.16V130C75.6703 130.019 75.577 130.028 75.5023 130.028C75.437 130.028 75.3903 130.028 75.3623 130.028C75.1383 130.019 74.9563 129.939 74.8163 129.79C74.6763 129.641 74.6063 129.44 74.6063 129.188V128.348C74.289 128.917 73.855 129.361 73.3043 129.678C72.763 129.986 72.1843 130.14 71.5683 130.14ZM80.5948 130.14C80.0908 130.14 79.6242 130.037 79.1948 129.832C78.7655 129.617 78.3968 129.337 78.0888 128.992C77.7808 128.647 77.5382 128.25 77.3608 127.802C77.1928 127.345 77.1088 126.869 77.1088 126.374C77.1088 125.861 77.1928 125.375 77.3608 124.918C77.5288 124.451 77.7575 124.045 78.0468 123.7C78.3455 123.355 78.6955 123.084 79.0968 122.888C79.5075 122.683 79.9555 122.58 80.4408 122.58C81.0568 122.58 81.6028 122.743 82.0788 123.07C82.5548 123.387 82.9282 123.775 83.1988 124.232V119.78H84.1508V128.768C84.1508 129.029 84.2628 129.16 84.4868 129.16V130C84.3468 130.028 84.2348 130.042 84.1508 130.042C83.9268 130.042 83.7308 129.972 83.5628 129.832C83.3948 129.683 83.3108 129.505 83.3108 129.3V128.586C83.0215 129.062 82.6295 129.44 82.1348 129.72C81.6402 130 81.1268 130.14 80.5948 130.14ZM80.8048 129.3C81.0382 129.3 81.2855 129.253 81.5468 129.16C81.8175 129.067 82.0695 128.941 82.3028 128.782C82.5362 128.614 82.7322 128.423 82.8908 128.208C83.0588 127.984 83.1615 127.746 83.1988 127.494V125.24C83.1055 124.988 82.9702 124.755 82.7928 124.54C82.6155 124.316 82.4102 124.12 82.1768 123.952C81.9528 123.784 81.7102 123.653 81.4488 123.56C81.1875 123.467 80.9308 123.42 80.6788 123.42C80.2868 123.42 79.9322 123.504 79.6148 123.672C79.2975 123.84 79.0222 124.064 78.7888 124.344C78.5648 124.615 78.3922 124.927 78.2708 125.282C78.1495 125.637 78.0888 126.001 78.0888 126.374C78.0888 126.766 78.1588 127.139 78.2988 127.494C78.4388 127.849 78.6302 128.161 78.8728 128.432C79.1155 128.693 79.4002 128.903 79.7268 129.062C80.0628 129.221 80.4222 129.3 80.8048 129.3ZM89.4158 130.14C88.8838 130.14 88.3985 130.042 87.9598 129.846C87.5211 129.641 87.1385 129.365 86.8118 129.02C86.4945 128.675 86.2471 128.273 86.0698 127.816C85.8925 127.359 85.8038 126.878 85.8038 126.374C85.8038 125.861 85.8925 125.375 86.0698 124.918C86.2565 124.461 86.5085 124.059 86.8258 123.714C87.1525 123.369 87.5351 123.093 87.9738 122.888C88.4125 122.683 88.8931 122.58 89.4158 122.58C89.9385 122.58 90.4191 122.683 90.8578 122.888C91.3058 123.093 91.6885 123.369 92.0058 123.714C92.3325 124.059 92.5845 124.461 92.7618 124.918C92.9485 125.375 93.0418 125.861 93.0418 126.374C93.0418 126.878 92.9531 127.359 92.7758 127.816C92.5985 128.273 92.3465 128.675 92.0198 129.02C91.7025 129.365 91.3198 129.641 90.8718 129.846C90.4331 130.042 89.9478 130.14 89.4158 130.14ZM86.7698 126.388C86.7698 126.799 86.8398 127.181 86.9798 127.536C87.1198 127.881 87.3065 128.189 87.5398 128.46C87.7825 128.721 88.0625 128.927 88.3798 129.076C88.7065 129.225 89.0518 129.3 89.4158 129.3C89.7798 129.3 90.1205 129.225 90.4378 129.076C90.7645 128.917 91.0491 128.707 91.2918 128.446C91.5345 128.175 91.7258 127.863 91.8658 127.508C92.0058 127.153 92.0758 126.771 92.0758 126.36C92.0758 125.959 92.0058 125.581 91.8658 125.226C91.7258 124.862 91.5345 124.549 91.2918 124.288C91.0491 124.017 90.7645 123.807 90.4378 123.658C90.1205 123.499 89.7798 123.42 89.4158 123.42C89.0518 123.42 88.7111 123.499 88.3938 123.658C88.0765 123.807 87.7965 124.017 87.5538 124.288C87.3111 124.559 87.1198 124.876 86.9798 125.24C86.8398 125.595 86.7698 125.977 86.7698 126.388ZM94.788 131.134L95.026 129.958H94.704V128.628H95.628V129.958L95.278 131.134H94.788ZM105.071 130.14C104.455 130.14 103.909 129.986 103.433 129.678C102.966 129.361 102.588 128.964 102.299 128.488V132.982H101.347V122.706H102.201V124.12C102.5 123.663 102.887 123.294 103.363 123.014C103.839 122.725 104.357 122.58 104.917 122.58C105.421 122.58 105.883 122.687 106.303 122.902C106.723 123.107 107.087 123.387 107.395 123.742C107.703 124.087 107.941 124.489 108.109 124.946C108.286 125.403 108.375 125.875 108.375 126.36C108.375 126.873 108.296 127.359 108.137 127.816C107.978 128.273 107.75 128.675 107.451 129.02C107.162 129.365 106.812 129.641 106.401 129.846C106 130.042 105.556 130.14 105.071 130.14ZM104.805 129.3C105.197 129.3 105.552 129.216 105.869 129.048C106.196 128.88 106.471 128.661 106.695 128.39C106.928 128.11 107.106 127.797 107.227 127.452C107.348 127.097 107.409 126.733 107.409 126.36C107.409 125.968 107.339 125.595 107.199 125.24C107.059 124.885 106.868 124.573 106.625 124.302C106.382 124.031 106.093 123.817 105.757 123.658C105.43 123.499 105.076 123.42 104.693 123.42C104.45 123.42 104.194 123.471 103.923 123.574C103.662 123.667 103.414 123.798 103.181 123.966C102.957 124.125 102.761 124.316 102.593 124.54C102.434 124.755 102.336 124.983 102.299 125.226V127.466C102.411 127.727 102.551 127.97 102.719 128.194C102.896 128.418 103.092 128.614 103.307 128.782C103.531 128.941 103.769 129.067 104.021 129.16C104.273 129.253 104.534 129.3 104.805 129.3ZM113.096 130.14C112.564 130.14 112.078 130.042 111.64 129.846C111.201 129.641 110.818 129.365 110.492 129.02C110.174 128.675 109.927 128.273 109.75 127.816C109.572 127.359 109.484 126.878 109.484 126.374C109.484 125.861 109.572 125.375 109.75 124.918C109.936 124.461 110.188 124.059 110.506 123.714C110.832 123.369 111.215 123.093 111.654 122.888C112.092 122.683 112.573 122.58 113.096 122.58C113.618 122.58 114.099 122.683 114.538 122.888C114.986 123.093 115.368 123.369 115.686 123.714C116.012 124.059 116.264 124.461 116.442 124.918C116.628 125.375 116.722 125.861 116.722 126.374C116.722 126.878 116.633 127.359 116.456 127.816C116.278 128.273 116.026 128.675 115.7 129.02C115.382 129.365 115 129.641 114.552 129.846C114.113 130.042 113.628 130.14 113.096 130.14ZM110.45 126.388C110.45 126.799 110.52 127.181 110.66 127.536C110.8 127.881 110.986 128.189 111.22 128.46C111.462 128.721 111.742 128.927 112.06 129.076C112.386 129.225 112.732 129.3 113.096 129.3C113.46 129.3 113.8 129.225 114.118 129.076C114.444 128.917 114.729 128.707 114.972 128.446C115.214 128.175 115.406 127.863 115.546 127.508C115.686 127.153 115.756 126.771 115.756 126.36C115.756 125.959 115.686 125.581 115.546 125.226C115.406 124.862 115.214 124.549 114.972 124.288C114.729 124.017 114.444 123.807 114.118 123.658C113.8 123.499 113.46 123.42 113.096 123.42C112.732 123.42 112.391 123.499 112.074 123.658C111.756 123.807 111.476 124.017 111.234 124.288C110.991 124.559 110.8 124.876 110.66 125.24C110.52 125.595 110.45 125.977 110.45 126.388ZM121.954 123.546C121.31 123.565 120.75 123.742 120.274 124.078C119.798 124.414 119.462 124.876 119.266 125.464V130H118.314V122.706H119.21V124.456C119.48 123.896 119.844 123.457 120.302 123.14C120.759 122.823 121.249 122.664 121.772 122.664C121.846 122.664 121.907 122.669 121.954 122.678V123.546ZM129.598 130.14C129.066 130.14 128.576 130.042 128.128 129.846C127.69 129.641 127.307 129.365 126.98 129.02C126.654 128.665 126.397 128.259 126.21 127.802C126.033 127.345 125.944 126.855 125.944 126.332C125.944 125.819 126.033 125.338 126.21 124.89C126.397 124.433 126.649 124.036 126.966 123.7C127.293 123.355 127.68 123.084 128.128 122.888C128.576 122.683 129.062 122.58 129.584 122.58C130.116 122.58 130.602 122.683 131.04 122.888C131.488 123.084 131.871 123.355 132.188 123.7C132.506 124.045 132.753 124.442 132.93 124.89C133.108 125.338 133.196 125.814 133.196 126.318C133.196 126.393 133.196 126.467 133.196 126.542C133.196 126.617 133.192 126.668 133.182 126.696H126.938C126.966 127.088 127.055 127.452 127.204 127.788C127.363 128.115 127.564 128.399 127.806 128.642C128.049 128.885 128.324 129.076 128.632 129.216C128.95 129.347 129.286 129.412 129.64 129.412C129.874 129.412 130.107 129.379 130.34 129.314C130.574 129.249 130.788 129.16 130.984 129.048C131.18 128.936 131.358 128.801 131.516 128.642C131.675 128.474 131.796 128.292 131.88 128.096L132.706 128.32C132.594 128.591 132.436 128.838 132.23 129.062C132.025 129.277 131.787 129.468 131.516 129.636C131.246 129.795 130.947 129.916 130.62 130C130.294 130.093 129.953 130.14 129.598 130.14ZM132.286 125.968C132.258 125.576 132.165 125.221 132.006 124.904C131.857 124.577 131.661 124.297 131.418 124.064C131.185 123.831 130.91 123.649 130.592 123.518C130.284 123.387 129.953 123.322 129.598 123.322C129.244 123.322 128.908 123.387 128.59 123.518C128.273 123.649 127.993 123.831 127.75 124.064C127.517 124.297 127.326 124.577 127.176 124.904C127.036 125.231 126.952 125.585 126.924 125.968H132.286ZM140.797 130H139.845V125.926C139.845 125.058 139.715 124.428 139.453 124.036C139.201 123.644 138.809 123.448 138.277 123.448C137.997 123.448 137.717 123.499 137.437 123.602C137.157 123.705 136.896 123.849 136.653 124.036C136.42 124.223 136.21 124.447 136.023 124.708C135.837 124.96 135.701 125.235 135.617 125.534V130H134.665V122.706H135.533V124.358C135.832 123.826 136.257 123.397 136.807 123.07C137.367 122.743 137.974 122.58 138.627 122.58C139.029 122.58 139.369 122.655 139.649 122.804C139.929 122.953 140.153 123.163 140.321 123.434C140.489 123.705 140.611 124.036 140.685 124.428C140.76 124.82 140.797 125.254 140.797 125.73V130ZM145.641 130.14C145.147 130.14 144.694 130.037 144.283 129.832C143.882 129.617 143.537 129.337 143.247 128.992C142.958 128.637 142.734 128.236 142.575 127.788C142.417 127.331 142.337 126.855 142.337 126.36C142.337 125.856 142.426 125.375 142.603 124.918C142.781 124.461 143.023 124.059 143.331 123.714C143.649 123.369 144.017 123.093 144.437 122.888C144.867 122.683 145.324 122.58 145.809 122.58C146.089 122.58 146.36 122.622 146.621 122.706C146.892 122.781 147.144 122.888 147.377 123.028C147.611 123.159 147.821 123.322 148.007 123.518C148.203 123.705 148.371 123.91 148.511 124.134V122.706H149.365V131.708C149.365 131.969 149.482 132.105 149.715 132.114V132.94C149.622 132.959 149.529 132.968 149.435 132.968C149.351 132.968 149.267 132.968 149.183 132.968C148.969 132.949 148.787 132.856 148.637 132.688C148.488 132.529 148.413 132.338 148.413 132.114V128.488C148.059 129.029 147.648 129.44 147.181 129.72C146.715 130 146.201 130.14 145.641 130.14ZM145.935 129.3C146.215 129.3 146.477 129.253 146.719 129.16C146.971 129.067 147.2 128.945 147.405 128.796C147.62 128.637 147.811 128.455 147.979 128.25C148.147 128.035 148.292 127.811 148.413 127.578V125.324C148.376 125.072 148.278 124.834 148.119 124.61C147.961 124.377 147.765 124.171 147.531 123.994C147.307 123.817 147.06 123.677 146.789 123.574C146.519 123.471 146.253 123.42 145.991 123.42C145.599 123.42 145.235 123.504 144.899 123.672C144.573 123.84 144.288 124.064 144.045 124.344C143.812 124.615 143.63 124.927 143.499 125.282C143.369 125.637 143.303 126.001 143.303 126.374C143.303 126.766 143.369 127.139 143.499 127.494C143.63 127.849 143.812 128.161 144.045 128.432C144.279 128.693 144.554 128.903 144.871 129.062C145.198 129.221 145.553 129.3 145.935 129.3ZM153.75 130.14C152.957 130.14 152.364 129.879 151.972 129.356C151.589 128.824 151.398 128.035 151.398 126.99V122.706H152.35V126.822C152.35 128.474 152.915 129.3 154.044 129.3C154.324 129.3 154.599 129.253 154.87 129.16C155.141 129.067 155.388 128.931 155.612 128.754C155.845 128.577 156.051 128.367 156.228 128.124C156.415 127.881 156.564 127.606 156.676 127.298V122.706H157.628V128.768C157.628 129.029 157.74 129.16 157.964 129.16V130C157.852 130.019 157.759 130.028 157.684 130.028C157.619 130.028 157.572 130.028 157.544 130.028C157.32 130.019 157.138 129.939 156.998 129.79C156.858 129.641 156.788 129.44 156.788 129.188V128.348C156.471 128.917 156.037 129.361 155.486 129.678C154.945 129.986 154.366 130.14 153.75 130.14ZM161.614 130.14C161.269 130.14 160.947 130.084 160.648 129.972C160.359 129.851 160.102 129.687 159.878 129.482C159.664 129.277 159.496 129.039 159.374 128.768C159.253 128.488 159.192 128.189 159.192 127.872C159.192 127.555 159.267 127.261 159.416 126.99C159.566 126.719 159.776 126.486 160.046 126.29C160.317 126.094 160.639 125.945 161.012 125.842C161.386 125.73 161.796 125.674 162.244 125.674C162.618 125.674 162.996 125.707 163.378 125.772C163.761 125.837 164.102 125.931 164.4 126.052V125.394C164.4 124.75 164.218 124.241 163.854 123.868C163.49 123.485 162.986 123.294 162.342 123.294C161.969 123.294 161.586 123.369 161.194 123.518C160.802 123.667 160.406 123.882 160.004 124.162L159.668 123.532C160.611 122.897 161.526 122.58 162.412 122.58C163.327 122.58 164.046 122.837 164.568 123.35C165.091 123.863 165.352 124.573 165.352 125.478V128.768C165.352 129.029 165.469 129.16 165.702 129.16V130C165.544 130.028 165.422 130.042 165.338 130.042C165.096 130.042 164.904 129.981 164.764 129.86C164.634 129.739 164.564 129.571 164.554 129.356L164.526 128.782C164.19 129.221 163.766 129.557 163.252 129.79C162.748 130.023 162.202 130.14 161.614 130.14ZM161.838 129.412C162.333 129.412 162.786 129.319 163.196 129.132C163.616 128.945 163.934 128.698 164.148 128.39C164.232 128.306 164.293 128.217 164.33 128.124C164.377 128.021 164.4 127.928 164.4 127.844V126.654C164.083 126.533 163.752 126.439 163.406 126.374C163.07 126.309 162.725 126.276 162.37 126.276C161.698 126.276 161.152 126.416 160.732 126.696C160.312 126.976 160.102 127.345 160.102 127.802C160.102 128.026 160.144 128.236 160.228 128.432C160.322 128.628 160.443 128.801 160.592 128.95C160.751 129.09 160.938 129.202 161.152 129.286C161.367 129.37 161.596 129.412 161.838 129.412ZM173.541 130H172.589V125.926C172.589 125.058 172.459 124.428 172.197 124.036C171.945 123.644 171.553 123.448 171.021 123.448C170.741 123.448 170.461 123.499 170.181 123.602C169.901 123.705 169.64 123.849 169.397 124.036C169.164 124.223 168.954 124.447 168.767 124.708C168.581 124.96 168.445 125.235 168.361 125.534V130H167.409V122.706H168.277V124.358C168.576 123.826 169.001 123.397 169.551 123.07C170.111 122.743 170.718 122.58 171.371 122.58C171.773 122.58 172.113 122.655 172.393 122.804C172.673 122.953 172.897 123.163 173.065 123.434C173.233 123.705 173.355 124.036 173.429 124.428C173.504 124.82 173.541 125.254 173.541 125.73V130ZM179.003 129.65C178.947 129.678 178.863 129.715 178.751 129.762C178.648 129.809 178.527 129.855 178.387 129.902C178.247 129.949 178.088 129.991 177.911 130.028C177.734 130.065 177.547 130.084 177.351 130.084C177.146 130.084 176.95 130.056 176.763 130C176.576 129.944 176.413 129.86 176.273 129.748C176.133 129.627 176.021 129.477 175.937 129.3C175.853 129.123 175.811 128.917 175.811 128.684V123.462H174.803V122.706H175.811V120.242H176.763V122.706H178.443V123.462H176.763V128.418C176.782 128.689 176.875 128.889 177.043 129.02C177.22 129.141 177.421 129.202 177.645 129.202C177.916 129.202 178.154 129.16 178.359 129.076C178.564 128.983 178.695 128.917 178.751 128.88L179.003 129.65ZM183.123 130.14C182.591 130.14 182.106 130.042 181.667 129.846C181.228 129.641 180.846 129.365 180.519 129.02C180.202 128.675 179.954 128.273 179.777 127.816C179.6 127.359 179.511 126.878 179.511 126.374C179.511 125.861 179.6 125.375 179.777 124.918C179.964 124.461 180.216 124.059 180.533 123.714C180.86 123.369 181.242 123.093 181.681 122.888C182.12 122.683 182.6 122.58 183.123 122.58C183.646 122.58 184.126 122.683 184.565 122.888C185.013 123.093 185.396 123.369 185.713 123.714C186.04 124.059 186.292 124.461 186.469 124.918C186.656 125.375 186.749 125.861 186.749 126.374C186.749 126.878 186.66 127.359 186.483 127.816C186.306 128.273 186.054 128.675 185.727 129.02C185.41 129.365 185.027 129.641 184.579 129.846C184.14 130.042 183.655 130.14 183.123 130.14ZM180.477 126.388C180.477 126.799 180.547 127.181 180.687 127.536C180.827 127.881 181.014 128.189 181.247 128.46C181.49 128.721 181.77 128.927 182.087 129.076C182.414 129.225 182.759 129.3 183.123 129.3C183.487 129.3 183.828 129.225 184.145 129.076C184.472 128.917 184.756 128.707 184.999 128.446C185.242 128.175 185.433 127.863 185.573 127.508C185.713 127.153 185.783 126.771 185.783 126.36C185.783 125.959 185.713 125.581 185.573 125.226C185.433 124.862 185.242 124.549 184.999 124.288C184.756 124.017 184.472 123.807 184.145 123.658C183.828 123.499 183.487 123.42 183.123 123.42C182.759 123.42 182.418 123.499 182.101 123.658C181.784 123.807 181.504 124.017 181.261 124.288C181.018 124.559 180.827 124.876 180.687 125.24C180.547 125.595 180.477 125.977 180.477 126.388Z" fill="#F1F1F1"/>
<g clip-path="url(#clip0)">
<path fill-rule="evenodd" clip-rule="evenodd" d="M143.076 41.1638C142.497 41.372 141.865 41.6322 141.654 41.5801C145.342 36.5843 152.665 36.6363 153.561 36.7404C154.456 36.8445 155.352 37.0006 156.195 37.2088C158.302 37.7812 158.46 39.3424 158.249 39.9148C157.459 43.974 151.769 49.4382 151.559 49.6464C150.558 50.531 149.504 51.4157 148.45 52.3004C147.502 53.1331 146.606 53.9137 145.658 54.7463C146.817 55.7871 148.45 56.2034 150.031 56.3075C153.719 56.5677 157.248 54.7463 157.617 54.6943C155.879 57.6085 151.348 58.4412 149.873 58.4412C148.503 58.4412 144.92 58.5973 142.918 56.2555C141.917 55.1626 142.76 53.8096 143.867 52.6647C144.71 51.78 149.03 47.825 150.874 45.7954C151.927 44.6505 155.036 40.6434 155.352 40.0189C155.563 39.6026 155.457 39.3944 154.983 39.2383C153.666 38.874 149.188 39.0302 143.076 41.1638Z" fill="url(#paint0_linear)"/>
<path d="M169.893 36.4802C165.309 25.3956 152.665 17.0172 140.547 16.1845C130.537 15.508 119.105 17.7978 111.571 24.7711C104.88 30.9639 102.351 42.5689 103.721 51.4157C104.933 59.2218 109.885 67.5482 117.05 71.3471C121.423 73.6369 126.691 73.9492 128.641 73.6889C137.228 72.44 139.546 65.7268 139.23 61.5115C139.23 61.5115 139.546 57.2963 132.17 53.8096C124.795 50.2708 114.574 46.576 120.896 35.6996C126.955 25.2395 138.545 33.5139 140.179 39.0822C140.179 39.0822 138.809 24.3028 124.9 27.4772C124.9 27.4772 117.893 29.2986 115.259 37.573C114.627 39.6026 113.731 46.0036 117.471 49.8545C119.368 51.8321 123.846 54.33 127.323 55.7351C136.174 59.3258 136.965 63.2809 133.435 67.4441C132.118 69.0574 127.745 72.3879 118.472 67.6002C112.466 64.4778 108.779 57.2963 107.619 50.9474C106.197 43.0893 108.726 33.2017 114.574 27.5813C121.159 21.2844 132.539 19.3069 141.338 20.2436C152.559 21.4926 163.887 29.6109 166.784 40.5393C170.472 54.2779 163.149 63.0207 161.99 64.8421C161.568 65.5186 154.509 76.5512 139.862 80.194C133.593 81.7552 119.473 83.0041 106.987 73.4808C100.612 68.641 94.6064 60.3146 89.9174 50.8433C88.2842 47.6168 86.8617 44.3383 85.7027 41.1638C87.3359 29.819 88.5477 20.4518 88.653 19.5671V19.359C89.3379 -7.38971 80.2235 2.70609 79.4332 4.47546C74.797 14.6233 77.0097 28.8823 81.5406 41.5281C79.3805 56.3596 76.5356 74.1573 74.5336 80.194C73.5326 83.1603 72.6369 83.8368 72.4262 83.8368C69.107 85.0337 59.7292 53.1331 55.7779 39.5506C61.4678 5.77646 54.1973 0 50.8782 0H50.8255C47.6644 0 46.3473 4.11118 45.9258 5.46422C44.2399 10.6162 47.401 24.9273 51.6685 39.7067C49.6138 54.382 45.0829 70.3584 35.2309 79.2572C32.2279 81.9633 28.0131 84.8776 24.6413 83.7847C18.4245 81.8593 15 75.7185 15 75.7185C15 75.8746 15.2634 77.2277 15.8956 78.997C17.002 81.9633 19.1621 86.1265 23.2715 87.5316C24.1671 87.8439 25.1154 88 26.1164 88C29.6463 88 33.545 86.0225 37.8651 82.1195C46.6634 74.1573 51.5631 61.2513 54.1973 48.3974C59.0443 64.0095 64.2601 78.4246 65.4191 81.495L65.4718 81.6511C65.9987 82.7439 68.7383 88.052 72.6369 87.7918C76.2721 87.5837 77.8 82.9521 78.3268 81.4429C80.1181 76.0308 82.4889 62.136 84.4909 48.8658C85.0705 50.1668 85.65 51.3637 86.2822 52.6127C90.3916 60.783 96.0815 70.4625 103.615 76.0308C115.364 84.7215 125.901 85.2419 130.116 85.2419C141.285 85.2419 149.767 81.1827 155.615 76.9154C158.407 75.042 160.936 72.8043 163.149 70.1502C169.418 62.5523 171.42 55.2147 171.842 51.5198C172.474 45.7954 171.368 40.0189 169.893 36.4802ZM53.407 30.1313C50.7201 19.6712 48.6128 9.78356 49.6664 6.66115C50.246 5.0479 55.9359 4.7877 53.407 30.1313ZM82.8577 32.2129C81.1191 25.1875 80.4869 18.6304 81.1718 13.2182C81.4879 10.5642 84.1221 -0.260201 84.649 13.2703C84.807 17.7978 84.807 24.2507 82.8577 32.2129Z" fill="url(#paint1_linear)"/>
</g>
<defs>
<linearGradient id="paint0_linear" x1="141.654" y1="47.5761" x2="158.318" y2="47.5761" gradientUnits="userSpaceOnUse">
<stop offset="0.9999" stop-color="#F1F1F1"/>
<stop offset="1" stop-color="#FFAA12"/>
</linearGradient>
<linearGradient id="paint1_linear" x1="15" y1="43.9907" x2="172.015" y2="43.9907" gradientUnits="userSpaceOnUse">
<stop offset="0.9999" stop-color="#F1F1F1"/>
<stop offset="1" stop-color="#FFAA12"/>
</linearGradient>
<clipPath id="clip0">
<rect width="157" height="88" fill="white" transform="translate(15)"/>
</clipPath>
</defs>
</svg>
